[comment encoding = UTF-8 /]
[module entity('http://www.eclipse.org/uml2/4.0.0/UML')]

[import at::fhv::mda::examples::moviedb::service::uml2service /]
[import at::fhv::mda::examples::moviedb::generate::common::dataTypes /]

[template public generateEntity(aClass : Class)]
[if (aClass.hasStereotype('Entity'))]
	[file (aClass.namespace.toPath().concat(aClass.name.toUpperFirst()).concat('.java'), false, 'UTF-8')]
package [aClass.namespace.name/];

[for (classifier:Classifier|aClass.operationsParametersTypes())]
import [classifier.getCompleteName()/];	
[/for]

public class [aClass.name.toUpperFirst()/] {
[for (p: Property | aClass.attribute)]
	[p.visibility/] [if p.isStatic]static [/if][p.type.convertToJavaType()/] [p.name/] [if p.getDefault() <> null] = "[p.getDefault()/]" [/if];
[/for]

[for (p: Property | aClass.attribute)]
	[if not p.isStatic]
	public [p.type.convertToJavaType()/] get[p.name.toUpperFirst()/](){
		return this.[p.name/];
	}

	public void set[p.name.toUpperFirst()/]([p.type.convertToJavaType()/] [p.name/]){
		this.[p.name/] = [p.name/];
	}
	[/if]
[/for]

[for (o: Operation | aClass.ownedOperation) separator('\n')]
	[o.visibility/] [if o.isStatic]static [/if][o.generateReturn()/] [o.name/]([o.generateRawParameters()/]){
		// [protected ('operation')]        
		// TODO implement [o.name/]
        throw new UnsupportedOperationException("Method not yet implemented");
        // [/protected] 
	}
[/for]
}
	[/file]
[/if]
[/template]
