[comment encoding = UTF-8 /]
[module promptProvider('http://www.eclipse.org/uml2/4.0.0/UML')]

[import at::fhv::mda::examples::moviedb::service::uml2service /]

[template public generatePromptProvider(aClass : Class)]
[if (aClass.hasStereotype('PromptProvider'))]
	[file (aClass.namespace.toPath().concat(aClass.name.toUpperFirst()).concat('.java'), false, 'UTF-8')]
package [aClass.namespace.name/];

import org.springframework.core.Ordered;
import org.springframework.core.annotation.Order;
import org.springframework.shell.plugin.PromptProvider;
import org.springframework.stereotype.Component;

@Component
@Order(Ordered.HIGHEST_PRECEDENCE)
public class [aClass.name.toUpperFirst()/] implements PromptProvider {
	private static final String PROVIDER_NAME = "[aClass.getValue(aClass.getAppliedStereotype('profile::PromptProvider'), 'provider')/]";
	private static final String PROMPT = "[aClass.getValue(aClass.getAppliedStereotype('profile::PromptProvider'), 'prompt')/]";

	@Override
	public String getProviderName() {
		return PROVIDER_NAME;
	}

	@Override
	public String getPrompt() {
		return PROMPT;
	}
}
	[/file]
[/if]
[/template]
