[comment encoding = UTF-8 /]
[module spring-shell-xml('http://www.eclipse.org/uml2/4.0.0/UML')]

[import at::fhv::mda::examples::moviedb::service::uml2service /]

[template public generateSpringShellXml(aModel : Model)]
	[file ('META-INF/spring/spring-shell-plugin.xml', false, 'UTF-8')]
<?xml version="1.0" encoding="UTF-8"?>
<beans xmlns="http://www.springframework.org/schema/beans"
	xmlns:xsi="http://www.w3.org/2001/XMLSchema-instance" xmlns:context="http://www.springframework.org/schema/context"
	xsi:schemaLocation="
  http://www.springframework.org/schema/beans http://www.springframework.org/schema/beans/spring-beans-3.1.xsd
  http://www.springframework.org/schema/context http://www.springframework.org/schema/context/spring-context-3.1.xsd">

	<context:component-scan
		base-package="[for (aPackage : Package | aModel.getNestedPackages()->select(hasStereotype('Scannable'))) separator(',')][aPackage.name/][/for]" />

</beans>
	[/file]
[/template]
