[comment encoding = UTF-8 /]
[module valueObject('http://www.eclipse.org/uml2/4.0.0/UML')]

[import at::fhv::mda::examples::moviedb::service::uml2service /]
[import at::fhv::mda::examples::moviedb::generate::common::dataTypes /]

[template public generateValueObject(aClass : Class)]
[if (aClass.hasStereotype('ValueObject'))]
	[file (aClass.namespace.toPath().concat(aClass.name.toUpperFirst()).concat('.java'), false, 'UTF-8')]
package [aClass.namespace.name/];

public class [aClass.name.toUpperFirst()/] {
[for (p: Property | aClass.attribute) separator('\n')]
	[p.visibility/] [p.type.convertToJavaType()/] [p.name/];
[/for]

[for (p: Property | aClass.attribute) separator('\n')]
	public [p.type.convertToJavaType()/] get[p.name.toUpperFirst()/](){
		return this.[p.name/];
	}

	public void set[p.name.toUpperFirst()/]([p.type.convertToJavaType()/] [p.name/]){
		this.[p.name/] = [p.name/];
	}
[/for]
}
	[/file]
[/if]
[/template]
