[comment encoding = UTF-8 /]
[module main('http://www.eclipse.org/uml2/4.0.0/UML')]

[import at::fhv::mda::examples::moviedb::generate::main /]
[import at::fhv::mda::examples::moviedb::generate::promptProvider /]
[import at::fhv::mda::examples::moviedb::generate::bannerProvider /]
[import at::fhv::mda::examples::moviedb::generate::spring-shell-xml /]
[import at::fhv::mda::examples::moviedb::generate::enum /]
[import at::fhv::mda::examples::moviedb::generate::valueObject /]
[import at::fhv::mda::examples::moviedb::generate::entity /]
[import at::fhv::mda::examples::moviedb::generate::command /]

[template public main(aModel : Model)]
[comment @main /]
	[for (aPackage : Package | aModel.getNestedPackages())]
		[for (aClass : Class | aPackage.packagedElement->filter(Class))]
		 	[aClass.generateMain()/]
			[aClass.generatePromptProvider()/]
			[aClass.generateBannerProvider()/]
			[aClass.generateValueObject()/]
			[aClass.generateEntity()/]
			[aClass.generateCommand()/]
		 [/for]
		 [for (anEnumeration : Enumeration | aPackage.packagedElement->filter(Enumeration))]
			[anEnumeration.generateEnumeration()/]
		 [/for]
	[/for]
	[aModel.generateSpringShellXml()/]
[/template]
